[gd_resource type="SampleLibrary" load_steps=2 format=1]

[ext_resource path="res://common/sounds/Space_1.smp" type="Sample" id=1]

[resource]

samples/Space_1 = { "db":0.0, "pitch":1.0, "sample":ExtResource( 1 ) }

