[gd_scene load_steps=3 format=1]

[sub_resource type="RectangleShape2D" id=1]

custom_solver_bias = 0.0
extents = Vector2( 30.477, 28.3193 )

[sub_resource type="GDScript" id=2]

script/source = "extends Area2D\n\nfunc _ready():\n\tconnect(\"body_enter\", self, \"on_object_enter\")\n\tpass\n\nfunc on_object_enter (obj):\n\tvar players = get_tree().get_nodes_in_group(\"Players\")\n\tfor p in players :\n\t\tif p == obj :\n\t\t\tprint(\"Player died\")\n\t\t\tobj.teleport_to_respawn_point()"

[node name="Offlimit" type="Area2D"]

transform/pos = Vector2( 487.693, 227.145 )
input/pickable = true
shapes/0/shape = SubResource( 1 )
shapes/0/transform = Matrix32( 1, 0, 0, 1, 0, 0 )
shapes/0/trigger = true
gravity_vec = Vector2( 0, 1 )
gravity = 98.0
linear_damp = 0.1
angular_damp = 1.0
script/script = SubResource( 2 )

[node name="CollisionShape2D" type="CollisionShape2D" parent="."]

shape = SubResource( 1 )
trigger = true
_update_shape_index = 0


