[gd_scene load_steps=4 format=1]

[ext_resource path="res://scripts/path_follow.gd" type="Script" id=1]
[ext_resource path="res://common/img/plateforme_big_2.png" type="Texture" id=2]

[sub_resource type="RectangleShape2D" id=1]

custom_solver_bias = 0.0
extents = Vector2( 350.764, 11.0861 )

[node name="platform_big" type="PathFollow2D"]

transform/pos = Vector2( 511.077, 273.91 )
offset = 0.0
h_offset = 0.0
v_offset = 0.0
rotate = true
cubic_interp = true
loop = true
lookahead = 4.0
script/script = ExtResource( 1 )
SPEED_PX_S = 128
active = true

[node name="Sprite" type="Sprite" parent="."]

transform/pos = Vector2( -18.2458, 79.2613 )
transform/scale = Vector2( 0.351038, 0.351038 )
texture = ExtResource( 2 )

[node name="StaticBody2D" type="StaticBody2D" parent="."]

input/pickable = false
shapes/0/shape = SubResource( 1 )
shapes/0/transform = Matrix32( 1, 0, 0, 4.91363, 10.731, 85.7049 )
shapes/0/trigger = false
collision/layers = 1
collision/mask = 1
constant_linear_velocity = Vector2( 0, 0 )
constant_angular_velocity = 0.0
friction = 1.0
bounce = 0.0

[node name="CollisionShape2D" type="CollisionShape2D" parent="StaticBody2D"]

transform/pos = Vector2( 10.731, 85.7049 )
transform/scale = Vector2( 1, 4.91363 )
shape = SubResource( 1 )
trigger = false
_update_shape_index = 0


